<?xml version="1.0" standalone="no"?>
<!DOCTYPE svg PUBLIC "-//W3C//DTD SVG 1.1//EN" "http://www.w3.org/Graphics/SVG/1.1/DTD/svg11.dtd">
<svg xmlns="http://www.w3.org/2000/svg"><defs><font id="flaticon" horiz-adv-x="512"><font-face units-per-em="512" ascent="448" descent="-64" x-height="240" cap-height="480"/><missing-glyph horiz-adv-x="512"/><glyph unicode="&#xE000;" glyph-name="cape1" horiz-adv-x="512" d="M361.42310346991 254.73501913786C361.42310346991 272.98398644663 375.80662659221 287.36750956893 396.45704963293 287.36750956893C411.29257652005 287.36750956893 425.67609964234 272.98398644663 425.67609964234 254.73501913786C425.67609964234 237.49803651879 411.29257652005 223.1145133965 396.45704963293 223.1145133965C375.80662659221 223.1145133965 361.42310346991 237.49803651879 361.42310346991 254.73501913786ZM491.0213967497 225.03407165715c-37.989583986949 -9.734328920123 -76.268306456673 -18.087218422539 -114.81207253561 -25.138984752463c-0.15260086590952 2.3853924829014 -0.53008721842254 4.8511012110184 -1.2208069272761 7.3890945598293 c-7.7344544142561 27.853673840748 -49.916546401456 36.80893518228 -60.148836041915 40.864905565665c6.5779004831524 7.1561774487043 13.155800966305 14.304323272887 19.733701449457 21.45246909707c14.713936123486 15.982932797892 -9.0917989583987 39.901110623078 -23.853924829014 23.853924829014 c-12.055468406852 -13.115642843697 -24.127000062747 -26.239317311916 -36.190500094121 -39.346928531091c-6.8750705904499 -7.4774424295664 -6.7626278471481 -21.524753717764 3.4214720461818 -26.480266047562c5.6542636631737 -2.7548472108929 11.437033318692 -5.2767773106607 17.259961096819 -7.7103595406915 c-38.5678609525 -11.509317939386 -56.727363995733 -13.003200100395 -57.578716195018 -13.067453096568c-75.882788479639 -6.5538056095878 -142.70590449896 -12.45704963293 -218.5886929786 -19.018886867039c-26.88184727364 -2.321139486729 -24.616929158562 -44.157871619502 2.4817719771601 -41.82066888373 c45.057413565916 3.8792746439104 90.122858756353 7.8067390349501 135.18027232227 11.677982054339c-41.30664491435 -10.360795632804 -82.621321453222 -20.72962289013 -123.91993474305 -31.074355273891C6.4252996172429 120.01254941331 17.605320951246 79.348434460689 43.989207504549 85.958461441928 c53.000690217732 13.276275334128 257.13245905754 59.313547091673 295.82882600238 73.730313107862c53.900232164146 8.3769843759804 107.30250360796 19.267867227207 160.16665620882 32.833281044111C521.05164083579 197.92733889691 512.1124427433 230.43935496016 491.0213967497 225.03407165715zM263.48547405409 223.98996046935c-2.6825625901989 3.3813139235741 -4.5378678546778 7.4453159314802 -5.3892200539625 11.926962414507c-0.35339147894836 1.8794001380435 -0.38551797703457 3.7909267741733 -0.38551797703457 5.68639016126 l-0.40961285059923 0.57827696555186l-249.79155424484 39.354960155613l30.311350944343 -79.729936625463l198.75861203489 17.179644851603C237.11765074983 219.03444813955 245.79983685763 219.80548409362 263.48547405409 223.98996046935z"/><glyph unicode="&#xE001;" glyph-name="cardboard12" horiz-adv-x="512" d="M28.471172430653 339.23795699993l47.583638275821 -21.744846535624L296.90229362587 422.07254957384c1.6023753682865 0.77185208952449 2.6102160189663 2.4068225629429 2.5815323264502 4.1839076947367c-0.027379888310835 1.7796927402043 -1.0873727072017 3.3794605000802 -2.7145203553885 4.1004642255989 L257.84814246098 447.60885873842c-1.1773351973659 0.52152168211114 -2.5202535288021 0.52152168211114 -3.6988925303733 0L28.518109382043 347.56013924221c-1.6414894944448 -0.72882655075032 -2.702786117541 -2.350758982116 -2.7132165511832 -4.1460973727836 C25.794462397217 341.61870347876 26.837505761439 339.98373300535 28.471172430653 339.23795699993zM242.10209907384 216.88636276824l-84.731627692598 39.127164200389v-119.45062987494c0 -1.1160563997178 -0.57367385032226 -2.1577959597349 -1.5215395075593 -2.7562420899574c-0.52934450734281 -0.33507768075641 -1.1330058543865 -0.50326842323725 -1.7379710056354 -0.50326842323725 c-0.47979994754225 0 -0.95959989508451 0.10691194483278 -1.4068047374948 0.3181282260878l-89.798210834307 42.53661219719c-1.1330058543865 0.54238254939559 -1.8527057756998 1.6858188374243 -1.8527057756998 2.9413822871069v120.24855804857L8.8710838127106 323.48669839596 c-1.4120199543159 0.64668688581782 -3.0561170571713 0.52934450734281 -4.363832675065 -0.31030540085613c-1.3064118136884 -0.84095371240422 -2.0965171620868 -2.2868725760574 -2.0965171620868 -3.838399580338v-272.16130502652c0 -1.7875155654359 1.041739560017 -3.4094479968016 2.6662795997932 -4.15261639381 l233.23231906534 -106.60946225716c0.60496515124893 -0.27510268731363 1.2516520370667 -0.41069832466253 1.8970351186793 -0.41069832466253c0.86181457968867 0 1.7184139425562 0.24511519059224 2.4667975563857 0.72361133392921c1.3064118136884 0.84095371240422 2.0965171620868 2.2868725760574 2.0965171620868 3.8397033845433 V212.73505017864C244.76968247784 214.51995813566 243.72794291782 216.14319437123 242.10209907384 216.88636276824zM507.49274886235 323.1737853867c-1.3064118136884 0.83964990819894 -2.9518127207491 0.95438467826339 -4.363832675065 0.31030540085613l-233.21928102328 -106.59903182352c-1.6245400397762 -0.74316839700838 -2.6662795997932 -2.365100828374 -2.6662795997932 -4.15261639381v-272.17043165596 c0 -1.5528308084859 0.79010534839838 -3.0013572805496 2.0965171620868 -3.8397033845433c0.74577600541894 -0.47849614333697 1.6036791724918 -0.72361133392921 2.4667975563857 -0.72361133392921c0.64538308161254 0 1.2920699674304 0.1355956373489 1.8970351186793 0.41069832466253l233.21928102328 106.60946225716 c1.6245400397762 0.74056078859782 2.6662795997932 2.3637970241688 2.6662795997932 4.15261639381V319.33408200215C509.59056982865 320.88691281064 508.79916067604 322.3341354785 507.49274886235 323.1737853867zM486.20814521119 343.41404186943c-0.011734237847501 1.7953383906676 -1.0730308609437 3.4172708220333 -2.7145203553885 4.1460973727836l-78.465544682032 34.786800001019c-1.2229683445506 0.54499015780615 -2.6245578652243 0.52021787790587 -3.8305767551064 -0.058671189237504 l-226.54249968805 -108.20531860442l79.444701640196 -37.962867045075c0.60235754283837 -0.27510268731363 1.2490444286562 -0.4120021288678 1.8970351186793 -0.4120021288678s1.2946775758409 0.13689944155418 1.8970351186793 0.4120021288678l225.64417859062 103.12048220384 C485.17422847641 339.98373300535 486.21857564484 341.61870347876 486.20814521119 343.41404186943z"/><glyph unicode="&#xE002;" glyph-name="delivery29" horiz-adv-x="512" d="M403.39911111111 378.28350326797L154.45500653595 261.24967320261v-75.153568627451l-43.427973856209 19.310431372549v75.153568627451L359.9711372549 397.59309803922l-83.614954248366 37.177725490196 c-11.196235294118 4.9777777777778 -29.516130718954 4.9777777777778 -40.712366013072 0L29.747032679739 343.22154248366C13.343790849673 335.92805228758 -0.041830065359477 315.27403921569 0 297.32224836601l0.50698039215686 -214.61667973856 c0.042666666666667 -18.142535947712 13.726954248366 -38.819137254902 30.408784313725 -45.951163398693L236.27294117647 -51.031843137255c10.829803921569 -4.6297516339869 28.552366013072 -4.6297516339869 39.383006535948 -0.0025098039215686l205.42745098039 87.789594771242 c16.680993464052 7.1286797385621 30.366117647059 27.803607843137 30.408784313725 45.945307189542L512 297.32224836601c0.042666666666667 17.951790849673 -13.342954248366 38.605803921569 -29.747032679739 45.899294117647L403.39911111111 378.28350326797zM465.48329411765 206.49411764706l-12.049568627451 -5.5910065359477l-0.24428758169935 -84.792052287582c-0.010875816993464 -3.7053071895425 -3.283660130719 -8.1158692810458 -7.3010196078431 -9.8493071895425l-18.039633986928 -7.7879215686275 c-3.954614379085 -1.7075032679739 -7.1537777777778 -0.12465359477124 -7.1562875816993 3.5329673202614l-0.061071895424837 83.677699346405l-11.671424836601 -5.4144836601307c-5.4897777777778 -2.546614379085 -8.9256993464052 1.4464836601307 -6.2000522875817 7.1956078431373l27.898980392157 58.859921568627 c2.816 5.9415424836601 9.8769150326797 9.3690980392157 12.702954248366 6.1465098039216l28.629333333333 -32.637490196078C474.84904575163 216.57683660131 471.22154248366 209.15534640523 465.48329411765 206.49411764706zM347.68815686275 70.322196078431 c0.030954248366013 -3.5496993464052 -2.9699346405229 -7.7301960784314 -6.6936470588235 -9.3381437908497l-16.728679738562 -7.2215424836601c-3.6684967320261 -1.5836862745098 -6.669385620915 -0.024261437908497 -6.7112156862745 3.4802614379085l-0.97966013071895 80.168156862745l-10.823947712418 -5.0212810457516 c-5.0907189542484 -2.3617254901961 -8.3392418300654 1.5125751633987 -5.8612287581699 6.9806013071895l25.357385620915 55.952732026144c2.5574901960784 5.6445490196078 9.0963660130719 8.818614379085 11.764287581699 5.6930718954248l27.023058823529 -31.653647058824 c2.6988758169935 -3.1598431372549 -0.59566013071895 -10.208209150327 -5.9080784313725 -12.672l-11.158588235294 -5.1768888888889L347.68815686275 70.322196078431zM485.39691503268 93.599790849673c-0.012549019607843 -1.8622745098039 -1.6865882352941 -4.0700653594771 -3.7379346405229 -4.9326013071895 l-191.07555555556 -80.271895424837c-1.7827973856209 -0.74959477124183 -3.2493594771242 0.03597385620915 -3.2752941176471 1.7535163398693l-0.14640522875817 9.3381437908497c-0.026771241830065 1.7217254901961 1.3971241830065 3.7337516339869 3.1832679738562 4.4942222222222l191.41605228758 81.541019607843 c2.0538562091503 0.87508496732026 3.7128366013072 0.071947712418301 3.7002875816993 -1.7953464052288L485.39691503268 93.599790849673z"/><glyph unicode="&#xE003;" glyph-name="delivery37" horiz-adv-x="512" d="M512 319.64109803922l-0.00083660130718954 -252.56491503268c0 -20.047477124183 -16.251816993464 -36.300967320261 -36.300967320261 -36.300967320261H279.3311372549c5.5859869281046 15.975738562092 8.7767843137255 33.063320261438 8.7767843137255 50.919738562092 c0 26.253385620915 -6.6643660130719 51.210875816993 -18.468810457516 73.132339869281c3.2250980392157 1.6096209150327 6.1406535947712 3.7923137254902 8.5718169934641 6.4593986928105l6.6928104575163 7.2089934640523c11.202091503268 12.096418300654 10.521934640523 31.139973856209 -1.6581437908497 42.568784313725 l-25.134013071895 23.191424836601c-5.5726013071895 5.1409150326797 -12.825934640523 7.9761568627451 -20.419764705882 7.9761568627451c-8.3869281045752 0 -16.448418300654 -3.5312941176471 -22.064522875817 -9.6142222222222l-6.7212549019608 -7.2315816993464 c-1.743477124183 -1.8932287581699 -3.2250980392157 -3.9562875816993 -4.4097254901961 -6.161568627451c-4.0265620915033 2.0981960784314 -8.1535163398693 4.0265620915033 -12.378352941176 5.7708758169935c2.4947450980392 4.3888104575163 3.9203137254902 9.458614379085 3.9203137254902 14.853019607843v8.4086797385621 c0 16.590640522876 -13.52031372549 30.082509803922 -30.13939869281 30.082509803922h-62.008888888889c-11.75508496732 0 -21.847843137255 -6.8392156862745 -26.794666666667 -16.689359477124v57.988183006536c0 9.776522875817 4.9861437908497 24.03137254902 11.079947712418 31.677071895425 l58.331189542484 73.181699346405c5.5106928104575 6.9128366013072 13.869176470588 10.93939869281 22.70954248366 10.93939869281h250.66499346405c8.8395294117647 0 17.19968627451 -4.0265620915033 22.710379084967 -10.93939869281l58.331189542484 -73.181699346405 C507.01385620915 343.67247058824 512 329.41762091503 512 319.64109803922zM481.85809150327 351.93725490196l-19.317124183007 24.234666666667H359.02243137255l-7.2600261437909 21.384366013072h93.733647058824L431.23450980392 415.44951633987 c-2.7708235294118 3.4760784313725 -6.9094901960784 5.4696993464052 -11.354352941176 5.4696993464052H169.21516339869c-4.4456993464052 0 -8.5835294117647 -1.9936209150327 -11.354352941176 -5.4696993464052l-14.26154248366 -17.892392156863h91.458091503268L222.05071895425 376.17275816993H126.55351633987 l-19.317124183007 -24.235503267974L481.85809150327 351.93725490196L481.85809150327 351.93725490196zM268.46535947712 195.06530718954l-25.119790849673 23.183058823529c-3.363137254902 3.107137254902 -8.6621699346405 2.9038431372549 -11.769307189542 -0.45929411764706 l-6.6752418300654 -7.1838954248366c-3.1079738562092 -3.363137254902 -2.9038431372549 -8.6621699346405 0.50949019607843 -11.769307189542L250.47843137255 175.60261437908c3.4141699346405 -3.1079738562092 8.6621699346405 -2.9055163398693 11.769307189542 0.50781699346405l6.6752418300654 7.1847320261438 C272.03179084967 186.65830065359 271.82766013072 191.90630065359 268.46535947712 195.06530718954zM151.17469281046 213.66211764706v17.832993464052h14.725019607843c4.5854117647059 0 8.3568104575163 3.7705620915033 8.3568104575163 8.3568104575163v8.4070065359477 c0 4.5854117647059 -3.7705620915033 8.3057777777778 -8.3568104575163 8.3057777777778h-62.008052287582c-4.5854117647059 0 -8.3049411764706 -3.7195294117647 -8.3049411764706 -8.3057777777778v-8.4070065359477c0 -4.5854117647059 3.7195294117647 -8.3568104575163 8.3049411764706 -8.3568104575163H117.29150326797v-17.577830065359 c-47.385098039216 -5.6052287581699 -87.178875816993 -36.124444444444 -105.82671895425 -78.110117647059C4.0759215686275 119.30101960784 0 100.95769934641 0 81.697464052288c0 -4.3821176470588 0.20329411764706 -8.7123660130719 0.61071895424837 -12.943058823529 c6.5213071895425 -67.459346405229 63.384261437908 -120.19450980392 132.5260130719 -120.19450980392c73.574065359477 0 133.18776470588 59.612862745098 133.18776470588 133.13756862745 C266.32533333333 149.15681045752 216.24052287582 204.84768627451 151.17469281046 213.66211764706zM133.13756862745 -18.524862745098c-55.333647058824 0 -100.22232679739 44.887006535948 -100.22232679739 100.22232679739 c0 11.769307189542 2.0387973856209 23.029124183007 5.7064575163399 33.475764705882c0 0.051032679738562 0 0.051032679738562 0 0.051032679738562c6.5221437908497 18.393516339869 18.240418300654 34.288941176471 33.424732026144 45.95785620915c0 0 0 0 0.051032679738562 0 c16.916078431373 13.044287581699 38.062013071895 20.78954248366 61.040941176471 20.78954248366c55.384679738562 0 100.27335947712 -44.888679738562 100.27335947712 -100.27419607843 C233.41092810458 26.362980392157 188.52141176471 -18.524862745098 133.13756862745 -18.524862745098zM213.79430065359 81.697464052288h-80.656732026144v81.472418300654 C176.19158169935 163.16988235294 213.79430065359 131.32549019608 213.79430065359 81.697464052288z"/><glyph unicode="&#xE004;" glyph-name="flying" horiz-adv-x="512" d="M493.09608920842 446.75094871517l-54.178933936063 -24.660756136415c-3.4695869023094 -1.6013478010659 -6.6722825044412 -3.7898564625226 -9.3945737662533 -6.5121477243346l-88.287642098766 -88.341020358802l-304.04256916238 36.457351604267c-5.4979607836596 0.64053912042636 -11.049299827355 -1.2276999808172 -14.945912809948 -5.1776912234464l-16.920908431263 -16.920908431263 c-8.967547685969 -8.967547685969 -6.1918781641215 -24.12697353606 5.3912042635885 -29.304664759506l217.89005746503 -97.68221586502l-62.559320761641 -62.559320761641h-109.26529829273c-4.8040434031977 0 -9.3945737662533 -1.9216173612791 -12.810782408527 -5.2839139609171l-9.1276824660756 -9.1810607261111c-9.0743042060401 -9.0743042060401 -6.0851216440504 -24.393864836237 5.6580955637662 -29.411955062177 l92.18425508136 -39.499912426292l39.499912426292 -92.18372129876c5.0175564433398 -11.743217207817 20.390495333572 -14.732933552407 29.411955062177 -5.6586293463665l9.1805269435108 9.1810607261111c3.4162086422739 3.4162086422739 5.2844477435175 8.0067390053295 5.2844477435175 12.810782408527v109.26529829273l62.559320761641 62.559320761641l97.68221586502 -217.94396950767 c5.1776912234464 -11.58254864511 20.337117073537 -14.358218166957 29.304130976906 -5.3912042635885l16.920908431263 16.920908431263c3.9499912426292 3.9499912426292 5.8182303438728 9.4479520262888 5.1776912234464 14.945912809948l-36.510729864302 304.04256916238l88.341020358802 88.341020358802c2.7228250444124 2.722291261812 4.9107999232688 5.8716086039083 6.5121477243346 9.3945737662533 l24.660756136415 54.178933936063C515.88914002619 440.29217925087 504.35890207591 451.87526167858 493.09608920842 446.75094871517z"/><glyph unicode="&#xE005;" glyph-name="stopwatch12" horiz-adv-x="512" d="M507.8043988896 345.33234777181l-93.997864616699 85.453177614613c-0.076742390643736 0.068332265641683 -0.17976642191889 0.085152515645789 -0.25650881256262 0.15348478128747 c-1.1963402815421 1.0344453752526 -2.5209349693655 1.8197407973193 -3.9222720478326 2.3411685474466c-0.17135629691684 0.059922140639629 -0.35007145321047 0.10302403127515 -0.5214277501273 0.16189490628953c-1.1616485159086 0.37635309384188 -2.37586031308 0.58134989076693 -3.5806107196242 0.61499039077514 c-0.11984428127926 0 -0.22181704692915 0.059922140639629 -0.34166132820841 0.059922140639629H55.544670576061H42.726588807306v-12.818081768754v-246.76252895087h25.636163537509V390.35805450155l19.278109035957 -19.278109035957v-8.7076331740009v-125.40232263999l29.447001429064 -23.601964552637V341.63294403653 l19.636590614169 -19.636590614169v-147.45787545788h25.636163537509V314.48400926428h324.01162962598v-324.01162962598H224.65546411735v-25.636163537509h287.34348461703V340.12017280179h-0.90619096897124 C510.41048637461 342.04293763038 509.41914288999 343.8626784277 507.8043988896 345.33234777181zM100.19402421196 394.76706253388L86.48657172424 408.47346375597H400.22733619146l15.082507925557 -13.706401222096H100.19402421196zM154.84932406906 340.12017280179 l-22.252139489808 22.252139489808h318.35476929647l24.481873880977 -22.252139489808H154.84932406906zM299.91451896385 86.939667208726h43.922929088848c12.12529772171 0 21.960938911612 9.8356411899013 21.960938911612 21.960938911612v65.88386800046h32.463082507926 c12.12529772171 0 15.005765534914 6.9562246423233 6.434796892196 15.527193285041l-67.294666469554 67.285205078927c-8.5793787677196 8.5793787677196 -22.482366661739 8.5793787677196 -31.053335304456 0l-67.294666469554 -67.285205078927 c-8.5793787677196 -8.5793787677196 -5.6999622201416 -15.527193285041 6.434796892196 -15.527193285041h32.463082507926v-65.88386800046C277.95252878661 96.766898273625 287.77975985151 86.939667208726 299.91451896385 86.939667208726zM227.15957883671 46.734013370785c0 -9.4340577210532 7.6563675487442 -17.090425269797 17.090425269797 -17.090425269797h148.11596773929c9.4340577210532 0 17.090425269797 7.6563675487442 17.090425269797 17.090425269797 c0 9.4340577210532 -7.6563675487442 17.090425269797 -17.090425269797 17.090425269797H244.25000410651C234.81594638545 63.825489906207 227.15957883671 56.168071091838 227.15957883671 46.734013370785zM207.56503884755 -35.676801524335v0.51301762512525v25.636163537509V143.00576553491c0 7.9643883769444 -6.4768475172063 14.441235894151 -14.441235894151 14.441235894151h-30.763185991886h-25.636163537509H68.362752344815 H42.726588807306H14.441235894151C6.4768475172063 157.44700142906 0 150.97015391186 0 143.00576553491V-35.676801524335c0 -7.9643883769444 6.4768475172063 -14.441235894151 14.441235894151 -14.441235894151h178.68256705925 C201.08819133034 -50.118037418486 207.56503884755 -43.640138635654 207.56503884755 -35.676801524335zM42.726588807306 119.07895990407c3.1359253601406 2.9309285632156 7.2463739548941 4.7601307511621 11.801507909131 4.7601307511621 c4.4268795479558 0 8.4595344864403 -1.691486391038 11.570229471575 -4.4773402979681c-8.7160432990029 -4.2902150166724 -16.560587394668 -10.143662018101 -23.363327255704 -17.090425269797c-1.4612592191068 -1.4864895941129 -2.9309285632156 -2.965620328849 -4.2902150166724 -4.5635440792391 c-1.0512656252567 2.3495786724486 -1.6494357660277 4.9567174230851 -1.6494357660277 7.7162896893839C36.796399415234 110.86647283957 39.111286322049 115.70334598137 42.726588807306 119.07895990407zM103.78304505659 -36.991934821531 c-43.349989323083 0 -78.488542847287 35.138553524204 -78.488542847287 78.488542847287c0 18.654708520179 6.5630512984773 35.728313539973 17.432086598006 49.195026199511c0.4099935938501 0.51301762512525 0.77793656268993 1.0512656252567 1.2047504065441 1.5464117347525 c6.7333563297689 7.929696611311 15.074097800555 14.39918526914 24.431413130965 19.149854629675c1.0933162502669 0.55506825013551 2.1445818755236 1.18793015654 3.272589891424 1.7009477816653c5.9385995170749 2.6660096256509 12.263013518619 4.6234662198788 18.868115442106 5.7514742357792v3.1958475007802v3.1958475007802 v8.322869955157h-6.8100987204126c-2.2560160318008 0 -4.0841669541221 2.4095008130883 -4.0841669541221 5.3835312669393c0 2.9740304538511 1.8292021879466 5.3835312669393 4.0841669541221 5.3835312669393h40.180423462935c2.2560160318008 0 4.0841669541221 -2.4095008130883 4.0841669541221 -5.3835312669393 c0 -2.9740304538511 -1.8292021879466 -5.3835312669393 -4.0841669541221 -5.3835312669393h-6.8016885954106v-8.322869955157v-3.1958475007802v-3.1958475007802c6.9047126266857 -1.179520031538 13.492994300169 -3.2557696414199 19.662872254801 -6.1099558139917 c9.8272310648992 -4.5456725636098 18.518043988896 -11.108723862087 25.636163537509 -19.089932489036c12.356576159267 -13.860937269009 19.910970942361 -32.104600929713 19.910970942361 -52.143826278355c0 -19.499926082886 -7.1528113142463 -37.299955649731 -18.928037582746 -51.024228387457 c-8.1010529082278 -9.4508779710573 -18.389789582615 -16.93694048851 -30.105093710475 -21.687609849045C124.13765009281 -34.915685211649 114.20739499663 -36.991934821531 103.78304505659 -36.991934821531zM172.3329226827 41.496608025756c0 12.971566550042 -3.6825834852741 25.063223771744 -9.9723057211846 35.41188258677c-6.2466203452751 10.288736674387 -15.065687675553 18.851295192102 -25.636163537509 24.670050427898 c-9.7841291742637 5.3835312669393 -21.004287192628 8.4679446114424 -32.942459633043 8.4679446114424c-12.971566550042 0 -25.063223771744 -3.6920448759014 -35.420292711773 -9.9723057211846c-10.903727065162 -6.6229734391169 -19.816357036088 -16.15900392582 -25.636163537509 -27.575748616107 c-4.7506693605348 -9.322623564776 -7.4944726424547 -19.833177286092 -7.4944726424547 -31.001823288819c0 -37.796153024853 30.754775866883 -68.549877626111 68.549877626111 -68.549877626111c7.733109939388 0 15.142430066197 1.3498250628295 22.089193317893 3.7172752509075 c15.33901673812 5.2384566106539 28.207559256887 15.765830581974 36.488378587033 29.413360929056C168.6408778068 16.433384254012 172.3329226827 28.523990210089 172.3329226827 41.496608025756zM123.30820151448 -10.647218252599 c-2.084659734884 -0.77793656268993 -4.2218827510307 -1.4444389691026 -6.4179766421919 -1.974276844232c-0.24809868756057 -0.059922140639629 -0.49514610949589 -0.13666453128337 -0.75165492205851 -0.19658667192299c-0.16189490628953 -0.03469176563347 -0.32484107820431 -0.093562640647842 -0.49514610949589 -0.12825440628131 c-1.0933162502669 -0.23968856255852 -2.2045040161632 -0.40158346884804 -3.3156917820595 -0.57293976576488v0.10302403127515v4.7254389855287v12.49324069055h-5.4003515169434H100.7743228371h-0.14507465628542h-5.3919413919414v-17.321703707354l0 0 c-1.4528490941047 0.22181704692915 -2.88782667258 0.49514610949589 -4.3070352666765 0.82839731270225c-0.7180144220503 0.17135629691684 -1.4265674534733 0.35007145321047 -2.1361717505215 0.54665812513346c-1.4097472034692 0.39317334384599 -2.7942640319322 0.84626882833161 -4.1619606103911 1.3498250628295 c-0.60658026577309 0.22181704692915 -1.2215706565482 0.41840371885215 -1.8197407973193 0.66650240641272c-3.5974309696283 1.4612592191068 -7.0161467829629 3.2557696414199 -10.194122768114 5.4003515169434c-8.8958097209218 6.0069317827165 -15.962417253897 14.517978284794 -20.19271012993 24.51656564661 c-2.1109413755154 4.9987680480954 -3.5206885789845 10.373889190033 -4.0936283447494 15.997109019531c-0.18817654692094 1.8712528129568 -0.29014931257084 3.7771973915472 -0.29014931257084 5.6999622201416c0 5.7935248607894 0.88831945334188 11.382052924654 2.5293450943675 16.62891966031 c1.0849061252649 3.469176563347 2.4957045943593 6.7932784704085 4.1956011103993 9.9292038305491c3.4355360633388 6.3233627359188 8.0663611425943 11.911890799783 13.578146815815 16.458614629018c1.3676965784589 1.1280080159004 2.7858539069301 2.1960938911612 4.263933376041 3.1874373757782 c3.1790272507761 2.1445818755236 6.5966917984855 3.9390922978367 10.194122768114 5.4003515169434c0.59817014077104 0.23968856255852 1.2131605315462 0.44468535948357 1.8197407973193 0.66650240641272c1.3676965784589 0.5046075001232 2.7511621412967 0.95665171898356 4.1619606103911 1.3498250628295 c0.70960429704824 0.19658667192299 1.4181573284712 0.37635309384188 2.1361717505215 0.54665812513346c1.4360288441006 0.34166132820841 2.88782667258 0.60658026577309 4.3669574073162 0.83785870332956c0.65809228141067 0.10302403127515 1.3161845628213 0.22181704692915 1.9826869692341 0.29855943757289 c2.1361717505215 0.24809868756057 4.2986251416745 0.4099935938501 6.4947190328356 0.4099935938501l0 0l0 0l0 0c1.4528490941047 0 2.88782667258 -0.11143415627721 4.3154453916786 -0.22181704692915c2.572446985003 -0.19658667192299 5.0933819543685 -0.54665812513346 7.5543947830943 -1.0764960002628 c0.41840371885215 -0.093562640647842 0.82839731270225 -0.22181704692915 1.2478522971797 -0.31643095320225c2.1960938911612 -0.52983787512935 4.3322656416827 -1.18793015654 6.4179766421919 -1.974276844232c0.47832585949178 -0.17976642191889 0.96611310961087 -0.33325120320636 1.4360288441006 -0.5214277501273 c3.5974309696283 -1.4612592191068 7.0161467829629 -3.2557696414199 10.194122768114 -5.4087616419455c0.61499039077514 -0.41840371885215 1.18793015654 -0.89672957834393 1.7861002973111 -1.3330048128254c8.0411307675882 -5.9133691420687 14.467517534782 -13.877757519013 18.406609832619 -23.183560833785 c1.7177680316694 -4.067346704118 2.9056981882094 -8.409073736428 3.6237126102597 -12.9032342844l0 0h-17.048374644787v-5.640040079502v-6.2981323609126v-5.1533040950081h17.116706910429l0 0c-0.70119417204619 -4.6739269698911 -1.9143547035924 -9.1775489084906 -3.6920448759014 -13.389970268894 c-4.2302928760328 -9.9975360961908 -11.296900409008 -18.508582598269 -20.19271012993 -24.51656564661c-3.1790272507761 -2.1445818755236 -6.5966917984855 -3.9390922978367 -10.194122768114 -5.4087616419455C124.27431462409 -10.313967049393 123.7875786396 -10.467451830681 123.30820151448 -10.647218252599zM58.560751654922 49.494636902709c-0.43627523448151 -2.5377552193696 -0.77793656268993 -5.1017920793706 -0.77793656268993 -7.7593915800194h2.5892672350071h5.3583008919332h31.933244632796h2.9824405788531h3.1359253601406v2.3495786724486v41.752065572693 v1.9059445785903c-12.886414034396 0 -24.499745396606 -5.3236091262997 -32.847845726769 -13.860937269009C64.542453062632 67.354588610194 60.167085530314 58.911874373758 58.560751654922 49.494636902709z"/><glyph unicode="&#xE006;" glyph-name="weight10" horiz-adv-x="512" d="M219.03931215574 -21.186858148461c-19.67354848619 0 -35.677757643395 16.00337255453 -35.677757643395 35.677757643395V228.32821622258c50.929024393831 10.004094777933 89.472982798991 54.973998323527 89.472982798991 108.79181175133 C272.83453731134 398.25978800619 223.09432531753 448 161.95456528524 448C100.81480525295 448 51.073756656465 398.25978800619 51.073756656465 337.1200279739c0 -53.816976825126 38.544795007835 -98.78688037072 89.473819401666 -108.79097514865v-213.83815333032 c0 -43.277456335713 35.210933351198 -78.490899494934 78.490899494934 -78.490899494934H460.92624334353v42.813141851539H219.03931215574L219.03931215574 -21.186858148461zM161.95456528524 254.77824636968 c-45.401590525475 0 -82.337598590847 36.936844668047 -82.337598590847 82.342618206892c0 45.400753922801 36.936844668047 82.338435193522 82.337598590847 82.338435193522c45.400753922801 0 82.337598590847 -36.936844668047 82.337598590847 -82.338435193522 C244.29216387608 291.71425443506 207.35531920804 254.77824636968 161.95456528524 254.77824636968zM254.22598402939 218.04051313809c-22.058702710299 0 -39.941084871054 -17.882382160755 -39.941084871054 -39.941084871054v-133.18463592261 c0 -22.058702710299 17.882382160755 -39.94024826838 39.941084871054 -39.94024826838h150.03297717807c22.058702710299 0 39.941084871054 17.882382160755 39.941084871054 39.94024826838V178.09859166437 c0 22.059539312973 -17.882382160755 39.941921473728 -39.941084871054 39.941921473728h-60.662059905327v-30.063317096923h-28.338242382749v30.063317096923L254.22598402939 218.04051313809L254.22598402939 218.04051313809zM385.35927019489 47.407031710836H273.12651164463 v14.168702890037h112.23192194758V47.407031710836zM365.41131603156 165.60476732805l28.150006781057 -33.55696986433c0 0 -9.2896360941766 0 -20.320242353337 0v-43.625483048175H357.58071500117v43.625483048175c-10.675050122631 0 -19.728764262687 0 -20.321915558686 0 L365.41131603156 165.60476732805zM321.22614579436 132.04779746372c0 0 -9.2896360941766 0 -20.321915558686 0v-43.625483048175h-15.660365458113v43.625483048175c-10.675050122631 0 -19.727091057338 0 -20.320242353337 0l28.150006781057 33.55696986433 L321.22614579436 132.04779746372zM156.07743149907 325.22521115231c-6.5681675950451 -1.1436358556141 -12.820099379247 3.2543844025889 -13.963735234861 9.8217153949598c-1.1436358556141 6.5681675950451 3.2535477999147 12.820099379247 9.8217153949598 13.963735234861 c1.3946166578704 0.24345137818853 2.821860820034 0.2250461193564 4.1420198399017 0l68.291039691241 -11.892307013574L156.07743149907 325.22521115231zM161.95372868256 387.20659347483c5.6780223497097 0 10.281010263089 4.6029879133789 10.281010263089 10.281010263089 c0 5.6780223497097 -4.6029879133789 10.281010263089 -10.281010263089 10.281010263089s-10.281010263089 -4.6029879133789 -10.281010263089 -10.281010263089C151.67271841947 391.8095813882 156.27570633285 387.20659347483 161.95372868256 387.20659347483zM161.95372868256 265.94103585137 c5.6780223497097 0 10.281010263089 4.6029879133789 10.281010263089 10.281010263089s-4.6029879133789 10.281010263089 -10.281010263089 10.281010263089s-10.281010263089 -4.6029879133789 -10.281010263089 -10.281010263089S156.27570633285 265.94103585137 161.95372868256 265.94103585137zM100.75624306576 327.13935807085c5.6780223497097 0 10.281010263089 4.6029879133789 10.281010263089 10.281010263089s-4.6029879133789 10.281010263089 -10.281010263089 10.281010263089s-10.281010263089 -4.6029879133789 -10.281010263089 -10.281010263089 S95.077384113373 327.13935807085 100.75624306576 327.13935807085z"/></font></defs></svg>
